<svg width="24" height="26" viewBox="0 0 24 26" fill="none" xmlns="http://www.w3.org/2000/svg">
<path d="M0.999878 7.03015L20.258 1.80881C21.4356 1.48953 22.5244 2.5227 22.1879 3.64021L16.3061 23.1752C15.8359 24.7369 13.4425 24.546 13.2535 22.9319L12.0589 12.7294C11.9783 12.0408 11.4054 11.4971 10.6796 11.4206L0.999878 10.4" stroke="white" stroke-width="2" stroke-linecap="round" stroke-linejoin="round"/>
</svg>
