<svg width="26" height="26" viewBox="0 0 26 26" fill="none" xmlns="http://www.w3.org/2000/svg">
<path d="M23.5318 10.7853C23.1771 9.46914 21.9214 8.18845 20.5619 8.40904C19.2024 8.62964 18.4626 7.79616 16.998 7.84681C15.9988 7.88136 15.7258 8.24614 15.3709 8.40904C14.461 8.82674 13.0239 8.72584 12.648 7.80573L12.4714 7.37321L11.0581 4.32071C9.87019 1.97004 8.34507 1.36285 6.90027 1.97004C5.45549 2.57723 5.52359 4.74954 6.2239 7.04221L9.12919 15.721L6.73512 14.4518C5.93707 14.0288 4.01022 13.4139 2.68764 14.3388C1.36506 15.2638 1.49491 16.932 2.74239 17.8374C3.98987 18.7428 6.37849 19.8521 8.34507 21.9109C11.4171 25.1269 15.7699 24.3226 18.2211 23.5895C21.5044 22.6075 24.9883 20.2454 24.1133 13.624" stroke="white" stroke-width="2" stroke-linecap="round" stroke-linejoin="round"/>
</svg>
